Feet X-ray,1,300
Feet X-ray,1,300,Lipid Profile,1,200
Feet X-ray,1,300,Lipid Profile,1,200,Lipid profile,1,900
Feet X-ray,1,300,Lipid Profile,1,200,Lipid profile,1,900,RBS,1,150
Feet X-ray,1,300
Feet X-ray,1,300,Lipid Profile,1,400
Feet X-ray,1,300,Lipid Profile,1,400,Lipid profile,1,900
Feet X-ray,1,300,Lipid Profile,1,400,Lipid profile,1,900,RBS,1,150
Feet X-ray,1,300,Lipid Profile,1,400,Lipid profile,1,900,RBS,1,150,Urine Test,1,400
Feet X-ray,1,300
Feet X-ray,1,300,Lipid Profile,1,400
Feet X-ray,1,300,Lipid Profile,1,400,Lipid profile,1,900
Feet X-ray,1,300,Lipid Profile,1,400,Lipid profile,1,900,RBS,1,150
Feet X-ray,1,300,Lipid Profile,1,400,Lipid profile,1,900,RBS,1,150,Urine Test,1,400
RGB,5,1500
RGB,5,1500,Feet X-Ray,9,3600
